<svg xmlns="http://www.w3.org/2000/svg" width="17.399" height="16.311" viewBox="0 0 17.399 16.311">
  <g id="Grupo_429" data-name="Grupo 429" transform="translate(-755 -348)">
    <path id="Caminho_4931" data-name="Caminho 4931" d="M771.311,350.175h-2.719v-1.087a1.087,1.087,0,1,0-2.175,0v1.087h-5.437v-1.087a1.087,1.087,0,1,0-2.175,0v1.087h-2.719A1.087,1.087,0,0,0,755,351.262v1.087h17.4v-1.087a1.087,1.087,0,0,0-1.087-1.088Zm0,0" transform="translate(0)" fill="#373643"/>
    <path id="Caminho_4932" data-name="Caminho 4932" d="M755,485.787a1.087,1.087,0,0,0,1.088,1.087h15.224a1.087,1.087,0,0,0,1.087-1.087V476H755Zm11.962-7.612h2.175v2.175h-2.175Zm-4.35,0h2.175v2.175h-2.175Zm0,4.35h2.175V484.7h-2.175Zm-4.35-4.35h2.175v2.175h-2.175Zm0,4.35h2.175V484.7h-2.175Zm0,0" transform="translate(0 -122.563)" fill="#373643"/>
  </g>
</svg>
