<svg xmlns="http://www.w3.org/2000/svg" width="40" height="40" viewBox="0 0 40 40">
  <g id="menu" transform="translate(-1463 -23)">
    <rect id="Retângulo_91" data-name="Retângulo 91" width="40" height="40" transform="translate(1463 23)" fill="#fff"/>
    <g id="Grupo_327" data-name="Grupo 327" transform="translate(1467.999 -57.243)">
      <path id="Caminho_4914" data-name="Caminho 4914" d="M.929,98.1H28.773a.928.928,0,1,0,0-1.856H.929a.928.928,0,1,0,0,1.856Z" fill="#1fc59e"/>
      <path id="Caminho_4915" data-name="Caminho 4915" d="M28.773,180.455H.929a.928.928,0,1,0,0,1.856H28.773a.928.928,0,1,0,0-1.856Z" transform="translate(0 -77.715)" fill="#1fc59e"/>
    </g>
  </g>
</svg>
