<svg xmlns="http://www.w3.org/2000/svg" width="40" height="40" viewBox="0 0 40 40">
  <g id="botão_pesquisar" data-name="botão pesquisar" transform="translate(-1230 -23)">
    <rect id="Retângulo_91" data-name="Retângulo 91" width="40" height="40" transform="translate(1230 23)" fill="#fff"/>
    <g id="Grupo_328" data-name="Grupo 328" transform="translate(1239.95 33)">
      <path id="Caminho_4916" data-name="Caminho 4916" d="M20.048,19.148l-4.9-4.9a8.61,8.61,0,1,0-.85.85L19.2,20a.608.608,0,0,0,.425.179A.589.589,0,0,0,20.048,20,.6.6,0,0,0,20.048,19.148ZM1.253,8.6a7.4,7.4,0,1,1,7.4,7.4A7.4,7.4,0,0,1,1.253,8.6Z" transform="translate(0)" fill="#1fc59e"/>
    </g>
  </g>
</svg>
