<svg xmlns="http://www.w3.org/2000/svg" width="48" height="48" viewBox="0 0 48 48">
  <g id="Grupo_499" data-name="Grupo 499" transform="translate(-1000 -485)">
    <g id="Grupo_476" data-name="Grupo 476" transform="translate(1000 485)">
      <circle id="Elipse_23" data-name="Elipse 23" cx="24" cy="24" r="24" fill="#fff"/>
      <g id="Grupo_475" data-name="Grupo 475" transform="translate(11.972 35.861) rotate(-90)">
        <path id="Caminho_4940" data-name="Caminho 4940" d="M23.888,10.819l-2.449-.348a1.014,1.014,0,0,1-.825-.747,8.641,8.641,0,0,0-.976-2.339,1.013,1.013,0,0,1,.06-1.105L21.191,4.3l-1.6-1.6-1.98,1.493a1.013,1.013,0,0,1-1.105.06,8.641,8.641,0,0,0-2.339-.976,1.014,1.014,0,0,1-.747-.825L13.069,0h-2.25l-.348,2.449a1.014,1.014,0,0,1-.747.825,8.641,8.641,0,0,0-2.339.976,1.013,1.013,0,0,1-1.105-.06L4.3,2.7,2.7,4.3l1.493,1.98a1.013,1.013,0,0,1,.06,1.105,8.641,8.641,0,0,0-.976,2.339,1.014,1.014,0,0,1-.825.747L0,10.819v2.25l2.449.348a1.014,1.014,0,0,1,.825.747A8.641,8.641,0,0,0,4.25,16.5a1.013,1.013,0,0,1-.06,1.105L2.7,19.588l1.6,1.6L6.28,19.7a1.013,1.013,0,0,1,1.105-.06,8.641,8.641,0,0,0,2.339.976,1.014,1.014,0,0,1,.747.825l.348,2.449h2.25l.348-2.449a1.014,1.014,0,0,1,.747-.825,8.641,8.641,0,0,0,2.339-.976,1.013,1.013,0,0,1,1.105.06l1.98,1.493,1.6-1.6L19.7,17.608a1.013,1.013,0,0,1-.06-1.105,8.641,8.641,0,0,0,.976-2.339,1.014,1.014,0,0,1,.825-.747l2.449-.348Zm-11.944,7.1a5.972,5.972,0,1,1,5.972-5.972,5.971,5.971,0,0,1-5.972,5.972Zm0,0" fill="#1fc59e"/>
        <path id="Caminho_4941" data-name="Caminho 4941" d="M7.963,3.981A3.981,3.981,0,1,1,3.981,0,3.982,3.982,0,0,1,7.963,3.981Zm0,0" transform="translate(7.963 7.963)" fill="#1fc59e"/>
      </g>
    </g>
  </g>
</svg>
